<svg xmlns="http://www.w3.org/2000/svg" width="76" height="76" viewBox="0 0 76 76" fill="none" focusable="false" aria-hidden="true">
  <path d="M76 76V0H0V76H76Z" fill="black"></path>
  <path d="M67.4925 61.4865V56.4726C67.4925 54.4406 66.6428 53.4537 64.8906 53.4537C64.315 53.4631 63.7529 53.6293 63.2647 53.9343C62.7765 54.2393 62.3806 54.6716 62.1198 55.1848C61.8348 54.0342 61.0642 53.4537 59.7606 53.4537C59.2114 53.4715 58.677 53.6361 58.213 53.9303C57.7489 54.2245 57.3721 54.6377 57.1217 55.1267C57.1217 55.0212 57.1217 54.8681 57.1217 54.7045V53.649H55.6017V61.4865H57.185V57.8976C57.1758 57.561 57.2059 57.2244 57.2748 56.8948C57.5967 55.6756 58.457 54.884 59.465 54.884C60.4731 54.884 60.7792 55.6492 60.7792 56.7945V61.4865H62.3625V57.8976C62.3552 57.5428 62.3906 57.1884 62.4681 56.842C62.7214 55.8709 63.4814 54.8892 64.6109 54.8892C65.3075 54.8892 65.9514 55.1215 65.9514 56.7998V61.4917L67.4925 61.4865ZM67.4503 41.0931C67.4503 41.0931 67.4925 40.6445 67.4925 40.444C67.5234 39.4971 67.2145 38.5705 66.6217 37.8315C66.3043 37.4722 65.9108 37.1881 65.4699 37.0001C65.0289 36.812 64.5515 36.7246 64.0725 36.7442C61.7503 36.7442 60.13 38.4437 60.13 40.8767C60.1144 41.427 60.2121 41.9747 60.417 42.4856C60.6219 42.9966 60.9296 43.46 61.3211 43.847C61.7126 44.234 62.1794 44.5364 62.6927 44.7355C63.206 44.9345 63.7547 45.0259 64.3048 45.004C65.424 45.001 66.5062 44.6028 67.3606 43.8798L66.7009 42.7134L66.6639 42.7504C66.0267 43.3012 65.2204 43.6178 64.3787 43.6476C64.0394 43.6655 63.7 43.6142 63.3812 43.4969C63.0623 43.3796 62.7707 43.1987 62.5239 42.9653C62.2771 42.7318 62.0803 42.4506 61.9455 42.1388C61.8107 41.8269 61.7407 41.4909 61.7398 41.1512H67.4292V41.1142L67.4503 41.0931ZM65.867 39.9267H61.7873C61.8531 39.3807 62.122 38.8794 62.5405 38.5225C62.959 38.1656 63.4965 37.9792 64.0461 38.0004C64.8959 38.0004 65.8195 38.5281 65.8881 39.9162L65.867 39.9267ZM65.9831 26.2045H67.4714V20.9267C67.4714 18.8156 66.2839 17.6492 64.1675 17.6492C63.0453 17.6388 61.949 17.9864 61.0378 18.6415L61.7503 19.8079C62.4212 19.3182 63.2217 19.0373 64.0514 19.0004C65.107 19.0004 65.8881 19.4648 65.8881 20.837V20.9848H65.5239C64.12 20.9848 60.4784 21.1009 60.4784 23.8612C60.4784 25.5342 61.8875 26.4104 63.3284 26.4104C63.8863 26.4231 64.436 26.2739 64.9109 25.9807C65.3859 25.6875 65.7656 25.263 66.0042 24.7584H66.0411C66.0158 24.9774 66.0035 25.1977 66.0042 25.4181V26.2151L65.9831 26.2045ZM65.8881 22.4467C65.8881 23.687 65.0067 25.112 63.6503 25.112C63.4567 25.1371 63.26 25.1215 63.0727 25.0663C62.8854 25.0111 62.7118 24.9174 62.5628 24.7912C62.4138 24.6651 62.2927 24.5092 62.2073 24.3336C62.122 24.158 62.0742 23.9666 62.067 23.7715C62.067 22.2673 64.2467 22.1881 65.4553 22.1881H65.8723V22.452L65.8881 22.4467ZM59.4175 35.1662H59.465V33.8204H59.4334C59.2419 33.7852 59.0474 33.7693 58.8528 33.7729C57.9609 33.7729 55.8814 34.0579 55.8814 36.7126V37.0451H54.9103V38.3276H55.8814V44.8192H57.4648V38.3223H59.3173V37.0398H57.4648V36.739C57.4434 36.5258 57.4696 36.3104 57.5416 36.1086C57.6136 35.9068 57.7296 35.7235 57.8811 35.572C58.0326 35.4204 58.2159 35.3045 58.4177 35.2325C58.6196 35.1605 58.8349 35.1342 59.0481 35.1556C59.1754 35.1549 59.3026 35.1655 59.4281 35.1873L59.4175 35.1662ZM57.0214 26.194H58.6048V17.8392H57.0214V26.2098V26.194ZM57.0214 16.1662H58.647V14.5301H57.0003V16.1662H57.0214ZM54.525 25.8615V17.8392H52.9892V18.6151C52.9839 18.703 52.9839 18.7911 52.9892 18.879H52.9575C52.9575 18.879 52.3453 17.6387 50.3186 17.6387C48.0017 17.6387 46.6664 19.4226 46.6664 21.824C46.6664 24.2254 48.0703 26.1095 50.4031 26.1095C50.8978 26.1466 51.3929 26.0434 51.8317 25.8119C52.2704 25.5804 52.635 25.2299 52.8836 24.8006H52.9153C52.9153 24.8006 52.9153 25.0645 52.9153 25.3284V25.9406C52.9153 27.6454 51.7225 28.2892 50.2764 28.2892C49.4775 28.2752 48.6916 28.0841 47.9753 27.7298L47.4475 28.9859C48.3357 29.4326 49.314 29.6708 50.3081 29.6826C52.4192 29.6826 54.5303 28.627 54.5303 25.8615H54.525ZM52.9417 21.8398C52.9417 24.0248 51.8862 24.7162 50.725 24.7162C49.2209 24.7162 48.2973 23.5287 48.2973 21.7923C48.2973 20.0559 49.1206 19.0267 50.5773 19.0267C51.8862 19.0267 52.9417 19.6548 52.9417 21.8398ZM45.1781 19.3117C45.3341 19.3127 45.4896 19.3286 45.6425 19.3592V17.7759C45.5062 17.7559 45.3687 17.7453 45.2309 17.7442C44.6151 17.7753 44.0257 18.0042 43.5503 18.3969C43.0749 18.7896 42.7388 19.3251 42.592 19.924H42.5603C42.5814 19.7153 42.592 19.5057 42.592 19.2959V17.8392H41.0298V26.2098H42.6131V22.7845C42.6028 22.2762 42.6686 21.7692 42.8084 21.2804C42.9311 20.7407 43.2271 20.2562 43.6513 19.9007C44.0754 19.5452 44.6042 19.3383 45.157 19.3117H45.1781ZM39.9478 41.0931C39.9478 41.0931 39.99 40.6445 39.99 40.444C40.0209 39.4971 39.712 38.5705 39.1192 37.8315C38.8026 37.4726 38.4101 37.1888 37.97 37.0007C37.5299 36.8126 37.0535 36.725 36.5753 36.7442C34.2478 36.7442 32.6275 38.4437 32.6275 40.8767C32.6119 41.427 32.7096 41.9747 32.9145 42.4856C33.1194 42.9966 33.4271 43.46 33.8186 43.847C34.2101 44.234 34.677 44.5364 35.1902 44.7355C35.7035 44.9345 36.2522 45.0259 36.8023 45.004C37.9215 45.001 39.0037 44.6028 39.8581 43.8798L39.1984 42.7134L39.1614 42.7504C38.5242 43.3012 37.7179 43.6178 36.8762 43.6476C36.5365 43.667 36.1965 43.6168 35.877 43.5001C35.5575 43.3833 35.2652 43.2025 35.0181 42.9688C34.771 42.735 34.5742 42.4532 34.44 42.1406C34.3057 41.8281 34.2367 41.4914 34.2373 41.1512H39.9425V41.1142L39.9478 41.0931ZM38.3645 39.9267H34.3059C34.3715 39.3844 34.6373 38.8862 35.0513 38.5298C35.4654 38.1734 35.9976 37.9846 36.5436 38.0004C37.3934 38.0004 38.317 38.5281 38.3856 39.9162L38.3645 39.9267ZM39.1034 21.9823C39.1254 21.0835 38.8788 20.1985 38.395 19.4407C37.9112 18.6828 37.2124 18.0866 36.3878 17.7282C35.5632 17.3698 34.6504 17.2656 33.7663 17.4289C32.8822 17.5922 32.0669 18.0156 31.4248 18.6449C30.7826 19.2743 30.3429 20.0808 30.1618 20.9615C29.9807 21.8422 30.0665 22.7569 30.4082 23.5885C30.7499 24.4201 31.3319 25.1309 32.0799 25.6298C32.8278 26.1288 33.7076 26.3932 34.6067 26.3892C35.1958 26.4099 35.7829 26.3111 36.3327 26.0987C36.8825 25.8863 37.3837 25.5648 37.8058 25.1535C38.228 24.7421 38.5625 24.2496 38.7891 23.7055C39.0158 23.1613 39.1298 22.577 39.1245 21.9876L39.1034 21.9823ZM37.4673 21.9823C37.4486 22.5478 37.2639 23.0953 36.9361 23.5566C36.6083 24.0178 36.152 24.3723 35.6241 24.5759C35.0962 24.7795 34.52 24.8232 33.9674 24.7015C33.4148 24.5799 32.9103 24.2982 32.5167 23.8916C32.1232 23.4851 31.858 22.9717 31.7543 22.4155C31.6506 21.8592 31.7129 21.2848 31.9336 20.7637C32.1542 20.2427 32.5233 19.7981 32.9949 19.4855C33.4666 19.1728 34.0198 19.0059 34.5856 19.0056C34.9746 19.0039 35.36 19.081 35.7184 19.2325C36.0768 19.3839 36.4007 19.6065 36.6706 19.8867C36.9404 20.167 37.1507 20.4991 37.2885 20.8629C37.4264 21.2267 37.489 21.6147 37.4725 22.0034L37.4673 21.9823ZM28.685 22.2304C28.685 22.2304 28.7325 21.7554 28.7325 21.539C28.7325 19.3698 27.4764 17.6176 25.112 17.6176C22.7475 17.6176 20.9267 19.3381 20.9267 22.0034C20.9095 22.5878 21.0129 23.1695 21.2303 23.7123C21.4477 24.255 21.7745 24.7472 22.1904 25.1581C22.6063 25.569 23.1024 25.89 23.6477 26.1009C24.193 26.3118 24.7759 26.4081 25.36 26.384C26.548 26.3859 27.6974 25.9628 28.6006 25.1912L27.9725 24.0406C27.28 24.6409 26.4026 24.9855 25.4867 25.017C25.1134 25.0358 24.7402 24.9779 24.3901 24.847C24.0399 24.7161 23.7203 24.5149 23.4509 24.2559C23.1814 23.9968 22.9678 23.6853 22.8233 23.3406C22.6787 22.9959 22.6062 22.6252 22.6103 22.2515L28.685 22.2304ZM27.1017 21.027H22.6473C22.712 20.4281 23 19.8756 23.4538 19.4795C23.9076 19.0834 24.494 18.8728 25.0961 18.8895C26.1517 18.8895 27.0648 19.5862 27.1175 21.027H27.1017ZM22.0562 33.6567H20.7895V36.6387H22.0562V33.6567ZM19.7762 39.2565C19.7543 38.1462 19.405 37.0671 18.772 36.1546C18.1391 35.2421 17.2507 34.537 16.2184 34.1276C15.1861 33.7182 14.0559 33.6229 12.9696 33.8536C11.8833 34.0843 10.8894 34.6308 10.1125 35.4243C9.33572 36.2179 8.81062 37.2233 8.60315 38.3143C8.39568 39.4052 8.51509 40.5332 8.9464 41.5565C9.3777 42.5798 10.1017 43.453 11.0274 44.0663C11.9532 44.6796 13.0395 45.0058 14.15 45.004C14.9006 45.0092 15.6446 44.8633 16.3376 44.5747C17.0305 44.2862 17.6582 43.8611 18.1833 43.3247C18.7084 42.7883 19.12 42.1516 19.3937 41.4527C19.6674 40.7537 19.7974 40.0068 19.7762 39.2565ZM18.1189 39.2565C18.1189 41.6473 16.3773 43.5209 14.15 43.5209C11.9228 43.5209 10.16 41.6473 10.16 39.2565C10.1322 38.7166 10.2145 38.1768 10.402 37.6698C10.5894 37.1628 10.878 36.6992 11.2503 36.3073C11.6225 35.9153 12.0707 35.6032 12.5674 35.39C13.064 35.1767 13.5989 35.0667 14.1395 35.0667C14.68 35.0667 15.2149 35.1767 15.7116 35.39C16.2083 35.6032 16.6564 35.9153 17.0287 36.3073C17.4009 36.6992 17.6896 37.1628 17.877 37.6698C18.0644 38.1768 18.1467 38.7166 18.1189 39.2565ZM17.8498 26.2098H19.2906V20.3356H15.9023V21.7554H17.8023V23.4442C16.9344 24.347 15.745 24.8706 14.4931 24.9009C12.0442 24.9009 10.1917 23.0326 10.1917 20.3198C10.1917 17.8181 11.8489 15.8179 14.5934 15.8179C15.7871 15.8226 16.9455 16.2236 17.8867 16.9579L18.71 15.7387C17.5126 14.7675 16.0019 14.2664 14.4614 14.3295C13.6712 14.3201 12.8872 14.4699 12.1561 14.7701C11.425 15.0703 10.7619 15.5146 10.2063 16.0766C9.6507 16.6386 9.21399 17.3068 8.92222 18.0412C8.63046 18.7757 8.48961 19.5614 8.5081 20.3515C8.5081 23.9245 11.0837 26.3892 14.2503 26.3892C14.9125 26.4006 15.5705 26.281 16.1864 26.0373C16.8022 25.7937 17.3639 25.4308 17.8392 24.9695H17.8762C17.8762 24.9695 17.8762 25.2176 17.8762 25.4656V26.194L17.8498 26.2098ZM9.40532 50.5667L8.5081 61.4865H10.0914L10.6192 54.6254C10.6562 54.1292 10.6562 53.459 10.6509 53.1529C10.7564 53.4642 10.9992 54.2084 11.1787 54.6412L13.3267 59.5231H14.7781L16.9525 54.6201C17.1531 54.1662 17.3853 53.4748 17.4803 53.1687C17.4803 53.4695 17.4803 54.1187 17.4803 54.6042L18.0081 61.4654H19.5914L18.7364 50.5667H17.0739L14.5775 56.4726C14.3717 56.9687 14.1342 57.6601 14.0498 57.8712C13.9759 57.6601 13.7384 56.9687 13.522 56.4726L11.0467 50.5667H9.40532ZM23.3175 53.6384H21.7342V58.6523C21.7342 60.6842 22.6156 61.6712 24.4312 61.6712C25.0121 61.6783 25.5837 61.5255 26.0836 61.2295C26.5835 60.9335 26.9923 60.5057 27.2653 59.9929C27.2653 60.0984 27.2653 60.2462 27.2653 60.4204V61.4759H28.7642V53.6384H27.1809V57.3329C27.1809 58.7684 26.3312 60.2251 24.7003 60.2251C23.5234 60.2251 23.2859 59.4651 23.2859 58.3304V53.6542L23.3175 53.6384ZM32.4006 44.8192L27.7509 38.7076L32.0839 33.8467H30.1259L25.4603 39.0559V33.8467H23.877V44.8192H25.4603V41.1248L26.6795 39.8529L30.4478 44.8034L32.4006 44.8192ZM31.1392 59.3754L30.3687 60.4995C31.1765 61.2542 32.2452 61.6665 33.3506 61.6501C35.0236 61.6501 36.1953 60.7054 36.1953 59.3542C36.1953 57.8606 34.8336 57.3223 33.7306 56.8842C32.9125 56.5623 32.2053 56.2826 32.2053 55.7126C32.2053 55.0423 32.8439 54.7995 33.4403 54.7995C34.146 54.7847 34.8315 55.0352 35.3614 55.5015L35.4037 55.5384L36.037 54.3456C35.3369 53.7388 34.4289 53.4267 33.5036 53.4748C31.7989 53.4748 30.6537 54.3773 30.6537 55.7231C30.6537 57.2009 31.952 57.7234 33.0973 58.1826C33.9311 58.5204 34.6437 58.8106 34.6437 59.3965C34.6437 59.9823 34.0156 60.3201 33.3981 60.3201C32.5797 60.3038 31.7961 59.9862 31.1973 59.4281L31.1392 59.3754ZM37.3511 57.5598C37.3355 58.108 37.4328 58.6536 37.6369 59.1626C37.841 59.6716 38.1475 60.1333 38.5376 60.5189C38.9276 60.9044 39.3927 61.2057 39.9041 61.4039C40.4154 61.6021 40.962 61.6931 41.51 61.6712C42.6223 61.6697 43.6978 61.2732 44.5448 60.5523L43.8903 59.3912L43.8534 59.4281C43.2182 59.9748 42.4161 60.2894 41.5786 60.3201C41.24 60.341 40.9007 60.2923 40.5815 60.1771C40.2624 60.0619 39.9702 59.8826 39.723 59.6502C39.4758 59.4178 39.2788 59.1373 39.1441 58.8259C39.0094 58.5145 38.9398 58.1788 38.9398 57.8395H44.6398V57.8026C44.6398 57.8026 44.6873 57.354 44.6873 57.1534C44.7167 56.2018 44.404 55.2711 43.8059 54.5304C43.4877 54.1783 43.0955 53.9011 42.6575 53.7186C42.2195 53.5361 41.7465 53.4528 41.2725 53.4748C38.9609 53.4748 37.3459 55.1637 37.3459 57.5809L37.3511 57.5598ZM39.0559 56.6151C39.1251 56.0784 39.3914 55.5867 39.803 55.2355C40.2147 54.8844 40.7422 54.6988 41.2831 54.7151C41.5314 54.7079 41.7785 54.7527 42.0085 54.8466C42.2385 54.9405 42.4464 55.0814 42.6188 55.2602C42.7912 55.4391 42.9244 55.652 43.0097 55.8853C43.0951 56.1186 43.1308 56.3672 43.1145 56.6151H39.0559ZM45.3892 45.004C46.5084 45.001 47.5907 44.6028 48.445 43.8798L47.7853 42.7134L47.7484 42.7504C47.1112 43.3012 46.3049 43.6178 45.4631 43.6476C45.1235 43.667 44.7835 43.6168 44.464 43.5001C44.1444 43.3833 43.8521 43.2025 43.605 42.9688C43.3579 42.735 43.1612 42.4532 43.0269 42.1406C42.8926 41.8281 42.8237 41.4914 42.8242 41.1512H48.5084V41.1142C48.5084 41.1142 48.5559 40.6392 48.5559 40.444C48.5867 39.4971 48.2778 38.5705 47.685 37.8315C47.3677 37.4722 46.9742 37.1881 46.5332 37.0001C46.0922 36.812 45.6149 36.7246 45.1359 36.7442C42.8136 36.7442 41.1934 38.4437 41.1934 40.8767C41.1776 41.4289 41.2758 41.9783 41.482 42.4908C41.6882 43.0032 41.9978 43.4676 42.3916 43.855C42.7854 44.2423 43.2548 44.5443 43.7706 44.742C44.2864 44.9397 44.8374 45.0289 45.3892 45.004ZM42.8928 39.9267C42.9581 39.3881 43.2209 38.8929 43.6305 38.537C44.04 38.1811 44.567 37.9899 45.1095 38.0004C45.9592 38.0004 46.8828 38.5281 46.9514 39.9162L42.8928 39.9267ZM47.9067 53.649H46.3234V58.6629C46.3234 60.6948 47.2048 61.6817 49.015 61.6817C49.5959 61.6889 50.1676 61.5361 50.6675 61.2401C51.1674 60.944 51.5762 60.5162 51.8492 60.0034C51.8492 60.109 51.8492 60.2567 51.8492 60.4309V61.4865H53.3745V53.6384H51.7911V57.3329C51.7911 58.7684 50.9414 60.2251 49.3159 60.2251C48.1389 60.2251 47.8961 59.4651 47.8961 58.3304V53.6542L47.9067 53.649ZM52.2978 37.0504V36.7495C52.2774 36.5365 52.3043 36.3216 52.3767 36.1203C52.449 35.9189 52.565 35.736 52.7163 35.5847C52.8676 35.4334 53.0505 35.3174 53.2519 35.245C53.4533 35.1727 53.6681 35.1458 53.8811 35.1662C54.0068 35.1652 54.1322 35.1758 54.2559 35.1979H54.3034V33.8204H54.2717C54.0803 33.7848 53.8858 33.7689 53.6912 33.7729C52.7992 33.7729 50.7198 34.0579 50.7198 36.7126V37.0451H49.7434V38.3276H50.7145V44.8192H52.2978V38.3223H54.1503V37.0398L52.2978 37.0504Z" fill="#F4F1EC"></path>
  </svg>